﻿[
	{
			"_id": "co-50",
			"_parentId": "course",
			"_type": "page",
			"_classes": "banner_01",
			"height":"570",
			"title": "Einführung",
			"displayTitle": "Einführung",
			"pageBody": "",
			"body": "<br>Der Videokonsum nimmt rasant zu. Hier möchten wir dir zeigen, wie du deine Geschichte mit einem Facebook-Video erzählst.",
			"_graphic": {
				"src": "course/en/images/contentObjects/landing_01.jpg",
				"alt": "Personen, die in einem Büro auf einen Computerbildschirm sehen"
			},
			"linkText": "Ansehen",
			"durationLabel": "Dauer:",
			"duration": "2 Min.",
			"_pageLevelProgress": {
				"_isEnabled": true
			}
	},
	{
		 "_id": "co-100",
		 "_parentId": "course",
		 "_type": "page",
		 "_classes": "banner_01",
		 "height":"570",
		 "title": "Verstehe, wo deine Werbeanzeigen erscheinen",
		 "displayTitle": "Verstehe, wo deine Werbeanzeigen erscheinen",
		 "pageBody": "",
		 "body": "Je nachdem, welche Art von Video Ad du erstellst, wird sie auf verschiedenen Plattformen wie Facebook und Instagram und mit verschiedenen Anzeigenplatzierungen wie dem News Feed geschaltet.",
		 "_graphic": {
			 "src": "course/en/images/contentObjects/landing_02.jpg",
			 "alt": "Ein Mann steht im Bus und sieht auf sein iPad"
		 },
		 "linkText": "Ansehen",
		 "durationLabel": "Dauer:",
		 "duration": "4 Min.",
		 "_pageLevelProgress": {
			 "_isEnabled": true
		 }
 },
 {
			"_id": "co-150",
			"_parentId": "course",
			"_type": "page",
			"_classes": "banner_01",
			"height":"570",
			"title": "Anzeigenformate",
			"displayTitle": "Anzeigenformate",
			"pageBody": "",
			"body": "<br>Es gibt viele Möglichkeiten, ein ansprechendes Video zu gestalten – egal, ob im Standard- oder Karussellformat.",
			"_graphic": {
				"src": "course/en/images/contentObjects/landing_03.jpg",
				"alt": "Ein Mann arbeitet auf einer Bank im Freien an einem Laptop"
			},
			"linkText": "Ansehen",
			"durationLabel": "Dauer:",
			"duration": "5 Min.",
			"_pageLevelProgress": {
				"_isEnabled": true
			}
	},
	{
			 "_id": "co-200",
			 "_parentId": "course",
			 "_type": "page",
			 "_classes": "banner_01",
			 "height":"570",
			 "title": "Spezifikationen und Details zu Video Assets",
			 "displayTitle": "Spezifikationen und Details zu Video Assets",
			 "pageBody": "",
			 "body": "Informiere dich über die Best Practices in Bezug auf Videolänge, Seitenverhältnisse, Elementtypen und Gestaltung für die Wiedergabe mit oder ohne Ton.",
			 "_graphic": {
				 "src": "course/en/images/contentObjects/landing_04.jpg",
				 "alt": "Ein Mädchen malt ein Schwein aus Ton pink an"
			 },
			 "linkText": "Ansehen",
			 "durationLabel": "Dauer:",
			 "duration": "5 Min.",
			 "_pageLevelProgress": {
				 "_isEnabled": true
			 }
	 },
	 {
				"_id": "co-250",
				"_parentId": "course",
				"_type": "page",
				"_classes": "banner_01",
				"height":"570",
				"title": "Kennzahlen",
				"displayTitle": "Kennzahlen",
				"pageBody": "",
				"body": "Facebook stellt Kennzahlen zur Performance bereit, damit du feststellen kannst, ob deine Video Ad funktioniert. Dadurch erfährst du mehr über deine Zielgruppe, deine Produktverkäufe und deine Reichweite.",
				"_graphic": {
					"src": "course/en/images/contentObjects/landing_05.jpg",
					"alt": "Eine Frau sitzt auf einem Bett und sieht auf ihren Laptop"
				},
				"linkText": "Ansehen",
				"durationLabel": "Dauer:",
				"duration": "6 Min.",
				"_pageLevelProgress": {
					"_isEnabled": true
				}
		},
		{
				 "_id": "co-300",
				 "_parentId": "course",
				 "_type": "page",
				 "_classes": "banner_01",
				 "height":"570",
				 "title": "Videos – Konzepte und Mythen",
				 "displayTitle": "Videos – Konzepte und Mythen",
				 "pageBody": "",
				 "body": "Es gibt eine Reihe von Fehleinschätzungen und Mythen zum Thema Facebook-Video. Hier klären wir sie auf.",
				 "_graphic": {
					 "src": "course/en/images/contentObjects/landing_06.jpg",
					 "alt": "Eine Frau arbeitet am Laptop im Home-Office"
				 },
				 "linkText": "Ansehen",
				 "durationLabel": "Dauer:",
				 "duration": "4 Min.",
				 "_pageLevelProgress": {
					 "_isEnabled": true
				 }
		 },
		 {
					"_id": "co-350",
					"_parentId": "course",
					"_type": "page",
					"_classes": "banner_01",
					"height":"570",
					"title": "Videogrundlagen – Zusammenfassung",
					"displayTitle": "Videogrundlagen – Zusammenfassung",
					"pageBody": "",
					"body": "Lies dir diese Zusammenfassung durch, bevor du den Wissenstest durchführst.",
					"_graphic": {
						"src": "course/en/images/contentObjects/landing_07.jpg",
						"alt": "Eine Frau gibt in einem Bürogebäude etwas in ihren Computer ein"
					},
					"linkText": "Ansehen",
					"durationLabel": "Dauer:",
					"duration": "2 Min.",
					"_pageLevelProgress": {
						"_isEnabled": true
					}
			},
			{
					 "_id": "co-400",
					 "_parentId": "course",
					 "_type": "page",
					 "_classes": "banner_01",
					 "height":"570",
					 "title": "Wissenstest",
					 "displayTitle": "Wissenstest",
					 "pageBody": "",
					 "body": "Mal sehen, wie gut du die Videogrundlagen beherrschst!",
					 "_graphic": {
						 "src": "course/en/images/contentObjects/landing_08.jpg",
						 "alt": "Eine Frau sitzt an ihrem Schreibtisch und sieht auf ihr Mobiltelefon"
					 },
					 "linkText": "Ansehen",
					 "durationLabel": "Dauer:",
					 "duration": "4 Min.",
					 "_pageLevelProgress": {
						 "_isEnabled": true
					 }
			 }

]
